…
```r
res <- pg_data(doi = '10.1594/PANGAEA.807580')
res[[1]]
```

```
#> <Pangaea data> 10.1594/PANGAEA.807580
#>   parent doi: 10.1594/PANGAEA.807580
#>   url:        https://doi.org/10.1594/PANGAEA.807580
#>   citation:   Schiebel, Ralf; Waniek, Joanna J; Bork, Matthias; Hemleben, Christoph (2001): Physical oceanography during METEOR cruise M36/6. PANGAEA, https://doi.org/10.1594/PANGAEA.807580, In supplement to: Schiebel, R et al. (2001): Planktic foraminiferal production stimulated by chlorophyll redistribution and entrainment of nutrients. Deep Sea Research Part I: Oceanographic Research Papers, 48(3), 721-740, https://doi.org/10.1016/S0967-0637(00)00065-0
#>   path:       /Users/sckott/Library/Caches/R/pangaear/10_1594_PANGAEA_807580.txt
#>   data:
#> # A tibble: 32,179 x 13
#>    Event `Date/Time` Latitude Longitude `Elevation [m]` `Depth water [m…
#>    <chr> <chr>          <dbl>     <dbl>           <int>            <dbl>
#>  1 M36/… 1996-10-14…     49.0     -16.5           -4802             0   
#>  2 M36/… 1996-10-14…     49.0     -16.5           -4802             0.99
#>  3 M36/… 1996-10-14…     49.0     -16.5           -4802             1.98
#>  4 M36/… 1996-10-14…     49.0     -16.5           -4802             2.97
#>  5 M36/… 1996-10-14…     49.0     -16.5           -4802             3.96
#>  6 M36/… 1996-10-14…     49.0     -16.5           -4802             4.96
#>  7 M36/… 1996-10-14…     49.0     -16.5           -4802             5.95
#>  8 M36/… 1996-10-14…     49.0     -16.5           -4802             6.94
#>  9 M36/… 1996-10-14…     49.0     -16.5           -4802             7.93
#> 10 M36/… 1996-10-14…     49.0     -16.5           -4802             8.92
#> # … with 32,169 more rows, and 7 more variables: `Press [dbar]` <int>,
#> #   `Temp [°C]` <dbl>, Sal <dbl>, `Tpot [°C]` <dbl>, `Sigma-theta
#> #   [kg/m**3]` <dbl>, `Sigma in situ [kg/m**3]` <dbl>, `Cond
#> #   [mS/cm]` <dbl>
```
…
```r
res <- pg_search(query = 'water', bbox = c(-124.2, 41.8, -116.8, 46.1), count = 3)
pg_data(res$doi[3])[1:3]
```

```
#> [[1]]
#> <Pangaea data> 10.1594/PANGAEA.325191
#>   parent doi: 10.1594/PANGAEA.325191
#>   url:        https://doi.org/10.1594/PANGAEA.325191
#>   citation:   WOCE Upper Ocean Thermal, UOT (2005): Water temperature XBT profiles from cruise 181991002 (DCQC). Marine Environmental Data Services Branch, Ontario, PANGAEA, https://doi.org/10.1594/PANGAEA.325191
#>   path:       /Users/sckott/Library/Caches/R/pangaear/10_1594_PANGAEA_325191.txt
#>   data:
#> # A tibble: 5,695 x 6
#>    `Date/Time` Latitude Longitude `Depth water [m… `Temp [°C]`
#>    <chr>          <dbl>     <dbl>            <int> <chr>      
#>  1 1991-03-26…     38.6     -124.                1 10.57      
#>  2 1991-03-26…     38.6     -124.                2 10.75      
#>  3 1991-03-26…     38.6     -124.                3 10.89      
#>  4 1991-03-26…     38.6     -124.                4 10.96      
#>  5 1991-03-26…     38.6     -124.                5 11.04      
#>  6 1991-03-26…     38.6     -124.                6 11.09      
#>  7 1991-03-26…     38.6     -124.                7 11.12      
#>  8 1991-03-26…     38.6     -124.                8 11.13      
#>  9 1991-03-26…     38.6     -124.                9 11.15      
#> 10 1991-03-26…     38.6     -124.               10 11.15      
#> # … with 5,685 more rows, and 1 more variable: `Sample label` <chr>
…
### List identifiers


```r
pg_list_identifiers(from = Sys.Date() - 2, until = Sys.Date())
```

```
#> # A tibble: 514 x 11
#>    identifier datestamp setSpec setSpec.1 setSpec.2 setSpec.3 setSpec.4
#>    <chr>      <chr>     <chr>   <chr>     <chr>     <chr>     <chr>    
#>  1 oai:panga… 2019-08-… citable hmmv      suppleme… topicOce… <NA>     
#>  2 oai:panga… 2019-08-… citable suppleme… <NA>      <NA>      <NA>     
#>  3 oai:panga… 2019-08-… citable suppleme… <NA>      <NA>      <NA>     
#>  4 oai:panga… 2019-08-… citable suppleme… topicBio… topicEco… topicOce…
#>  5 oai:panga… 2019-08-… citable suppleme… <NA>      <NA>      <NA>     
#>  6 oai:panga… 2019-08-… citable suppleme… <NA>      <NA>      <NA>     
#>  7 oai:panga… 2019-08-… citable suppleme… topicLit… topicOce… topicPal…
#>  8 oai:panga… 2019-08-… citable suppleme… topicLan… topicLit… topicPal…
#>  9 oai:panga… 2019-08-… citable suppleme… topicChe… topicGeo… topicLit…
#> 10 oai:panga… 2019-08-… citable suppleme… topicLan… topicLit… <NA>     
#> # … with 504 more rows, and 4 more variables: setSpec.5 <chr>,
#> #   setSpec.6 <chr>, setSpec.7 <chr>, setSpec.8 <chr>
```

### List sets


```r
pg_list_sets()
```

```
#> # A tibble: 282 x 2
#>    setSpec   setName                                        
#>    <chr>     <chr>                                          
#>  1 ACD       PANGAEA set / keyword 'ACD' (2 data sets)      
#>  2 ASPS      PANGAEA set / keyword 'ASPS' (59 data sets)    
#>  3 AWIXRFraw PANGAEA set / keyword 'AWIXRFraw' (1 data sets)
#>  4 BAH1960   PANGAEA set / keyword 'BAH1960' (2 data sets)  
#>  5 BAH1961   PANGAEA set / keyword 'BAH1961' (2 data sets)  
#>  6 BAH1962   PANGAEA set / keyword 'BAH1962' (7 data sets)  
#>  7 BAH1963   PANGAEA set / keyword 'BAH1963' (7 data sets)  
#>  8 BAH1964   PANGAEA set / keyword 'BAH1964' (7 data sets)  
#>  9 BAH1965   PANGAEA set / keyword 'BAH1965' (7 data sets)  
#> 10 BAH1966   PANGAEA set / keyword 'BAH1966' (6 data sets)  
#> # … with 272 more rows
```

### List records


```r
pg_list_records(from = Sys.Date() - 1, until = Sys.Date())
```

```
#> # A tibble: 331 x 586
#>    identifier datestamp setSpec setSpec.1 setSpec.2 setSpec.3 setSpec.4
#>    <chr>      <chr>     <chr>   <chr>     <chr>     <chr>     <chr>    
#>  1 oai:panga… 2019-08-… citable suppleme… topicBio… topicEco… topicOce…
#>  2 oai:panga… 2019-08-… citable suppleme… <NA>      <NA>      <NA>     
#>  3 oai:panga… 2019-08-… citable suppleme… topicLit… topicOce… topicPal…
#>  4 oai:panga… 2019-08-… citable suppleme… topicLan… topicLit… topicPal…
#>  5 oai:panga… 2019-08-… citable <NA>      <NA>      <NA>      <NA>     
#>  6 oai:panga… 2019-08-… citable suppleme… topicLit… <NA>      <NA>     
#>  7 oai:panga… 2019-08-… BCCR    suppleme… topicLan… topicLit… <NA>     
#>  8 oai:panga… 2019-08-… citable suppleme… <NA>      <NA>      <NA>     
#>  9 oai:panga… 2019-08-… citable <NA>      <NA>      <NA>      <NA>     
#> 10 oai:panga… 2019-08-… citable suppleme… topicLit… <NA>      <NA>     
#> # … with 321 more rows, and 579 more variables: title <chr>,
#> #   creator <chr>, creator.1 <chr>, creator.2 <chr>, creator.3 <chr>,
#> #   source <chr>, publisher <chr>, date <chr>, type <chr>, format <chr>,
#> #   identifier.2 <chr>, identifier.1 <chr>, description <chr>,
#> #   language <chr>, rights <chr>, rights.1 <chr>, coverage <chr>,
#> #   subject <chr>, creator.4 <chr>, relation <chr>, creator.5 <chr>,
#> #   creator.6 <chr>, creator.7 <chr>, creator.8 <chr>, creator.9 <chr>,
#> #   creator.10 <chr>, creator.11 <chr>, relation.1 <chr>,
#> #   relation.2 <chr>, relation.3 <chr>, relation.4 <chr>,
…
