…
```r
res <- pg_data(doi = '10.1594/PANGAEA.807580')
res[[1]]
```

```
#> <Pangaea data> 10.1594/PANGAEA.807580
#>   parent doi: 10.1594/PANGAEA.807580
#>   url:        https://doi.org/10.1594/PANGAEA.807580
#>   citation:   Schiebel, Ralf; Waniek, Joanna J; Bork, Matthias; Hemleben, Christoph (2001): Physical oceanography during METEOR cruise M36/6. PANGAEA, https://doi.org/10.1594/PANGAEA.807580,In supplement to: Schiebel, R et al. (2001): Planktic foraminiferal production stimulated by chlorophyll redistribution and entrainment of nutrients. Deep Sea Research Part I: Oceanographic Research Papers, 48(3), 721-740, https://doi.org/10.1016/S0967-0637(00)00065-0
#>   path:       /Users/sckott/Library/Caches/pangaear/10_1594_PANGAEA_807580.txt
#>   data:
#> # A tibble: 32,179 x 13
#>    Event `Dat… Lati… Long… `Ele… `Dep… `Pre… `Tem…   Sal `Tpo… `Sig… `Sig…
#>    <chr> <chr> <dbl> <dbl> <int> <dbl> <int> <dbl> <dbl> <dbl> <dbl> <dbl>
#>  1 M36/… 1996…  49.0 -16.5 -4802 0         0  15.7  35.7  15.7  26.4  26.4
#>  2 M36/… 1996…  49.0 -16.5 -4802 0.990     1  15.7  35.7  15.7  26.4  26.4
#>  3 M36/… 1996…  49.0 -16.5 -4802 1.98      2  15.7  35.7  15.7  26.4  26.4
#>  4 M36/… 1996…  49.0 -16.5 -4802 2.97      3  15.7  35.7  15.7  26.4  26.4
#>  5 M36/… 1996…  49.0 -16.5 -4802 3.96      4  15.7  35.7  15.7  26.4  26.4
#>  6 M36/… 1996…  49.0 -16.5 -4802 4.96      5  15.7  35.7  15.7  26.4  26.4
#>  7 M36/… 1996…  49.0 -16.5 -4802 5.95      6  15.7  35.7  15.7  26.4  26.4
#>  8 M36/… 1996…  49.0 -16.5 -4802 6.94      7  15.7  35.7  15.7  26.4  26.4
#>  9 M36/… 1996…  49.0 -16.5 -4802 7.93      8  15.7  35.7  15.7  26.4  26.4
#> 10 M36/… 1996…  49.0 -16.5 -4802 8.92      9  15.7  35.7  15.7  26.4  26.4
#> # ... with 32,169 more rows, and 1 more variable: `Cond [mS/cm]` <dbl>
```
…
```r
res <- pg_search(query = 'water', bbox = c(-124.2, 41.8, -116.8, 46.1), count = 3)
pg_data(res$doi[3])[1:3]
```

```
#> [[1]]
#> <Pangaea data> 10.1594/PANGAEA.874893
#>   parent doi: 10.1594/PANGAEA.874893
#>   url:        https://doi.org/10.1594/PANGAEA.874893
#>   citation:   Uhlig, Christiane; Loose, Brice (2017): Methane oxidation in Arctic seawater, Utqiagvik, Alaska. PANGAEA, https://doi.org/10.1594/PANGAEA.874893,Supplement to: Uhlig, C; Loose, B (2017): Using stable isotopes and gas concentrations for independent constraints on microbial methane oxidation at Arctic Ocean temperatures. Limnology and Oceanography-Methods, 15 pp, https://doi.org/10.1002/lom3.10199
#>   path:       /Users/sckott/Library/Caches/pangaear/10_1594_PANGAEA_874893.txt
#>   data:
#> # A tibble: 270 x 22
#>    Event  `Date… Latit… Longi… `Dep… `Dep… `Dep… `Sam… Treat `N [… `Durat…
#>    <chr>  <chr>   <dbl>  <dbl> <dbl> <int> <int> <int> <chr> <int>   <dbl>
#>  1 Elson… 2016-…   71.3   -156  1.50    NA    NA     7 0.2x…     2  0.0100
#>  2 Elson… 2016-…   71.3   -156  1.50    NA    NA     7 0.2x…     3  6.03  
#>  3 Elson… 2016-…   71.3   -156  1.50    NA    NA     7 0.2x…     2  8.88  
#>  4 Elson… 2016-…   71.3   -156  1.50    NA    NA     7 0.2x…     4 10.8   
#>  5 Utqia… 2016-…   71.4   -157  6.50    NA    NA    10 0.2x      2  0.0100
#>  6 Utqia… 2016-…   71.4   -157  6.50    NA    NA    10 0.2x      2  6.15  
#>  7 Utqia… 2016-…   71.4   -157  6.50    NA    NA    10 0.2x      2  8.99  
#>  8 Utqia… 2016-…   71.4   -157  6.50    NA    NA    10 0.2x      2 10.8   
#>  9 Utqia… 2016-…   71.4   -157  5.00    NA    NA    13 0.2x      2  0.0100
#> 10 Utqia… 2016-…   71.4   -157  5.00    NA    NA    13 0.2x      2  6.15  
#> # ... with 260 more rows, and 11 more variables: `Duration std dev [±]`
#> #   <dbl>, `CH4 [nmol/l]` <dbl>, `CH4 std dev [±]` <dbl>, `ln(CH4) [nmol]`
#> #   <dbl>, `ln(CH4) std dev [±]` <dbl>, `d13C CH4 [per mil PDB]` <dbl>,
#> #   `d13C CH4 std dev [±]` <dbl>, `Y-axis high mean` <dbl>, `Y-axis high
#> #   std dev [±]` <dbl>, `Y-axis low mean` <dbl>, `Y-axis low std dev [±]`
#> #   <dbl>
…
### List identifiers


```r
pg_list_identifiers(from = Sys.Date() - 2, until = Sys.Date())
```

```
#> # A tibble: 390 x 6
#>    identifier                                date… setS… setS… setS… setS…
#>    <chr>                                     <chr> <chr> <chr> <chr> <chr>
#>  1 oai:pangaea.de:doi:10.1594/PANGAEA.870867 2017… cita… cita… supp… <NA> 
#>  2 oai:pangaea.de:doi:10.1594/PANGAEA.724540 2017… cita… cita… supp… <NA> 
#>  3 oai:pangaea.de:doi:10.1594/PANGAEA.149999 2017… cita… cita… supp… <NA> 
#>  4 oai:pangaea.de:doi:10.1594/PANGAEA.816714 2017… cita… cita… deNB… supp…
#>  5 oai:pangaea.de:doi:10.1594/PANGAEA.817715 2017… cita… cita… deNB… supp…
#>  6 oai:pangaea.de:doi:10.1594/PANGAEA.819855 2017… cita… cita… <NA>  <NA> 
#>  7 oai:pangaea.de:doi:10.1594/PANGAEA.820004 2017… cita… cita… supp… <NA> 
#>  8 oai:pangaea.de:doi:10.1594/PANGAEA.858878 2017… cita… cita… deNB… supp…
#>  9 oai:pangaea.de:doi:10.1594/PANGAEA.880113 2017… cita… cita… supp… <NA> 
#> 10 oai:pangaea.de:doi:10.1594/PANGAEA.884462 2017… cita… cita… supp… <NA> 
#> # ... with 380 more rows
```

### List sets


```r
pg_list_sets()
```

```
#> # A tibble: 262 x 2
#>    setSpec   setName                                       
#>    <chr>     <chr>                                         
#>  1 ACD       PANGAEA tech-keyword 'ACD' (2 data sets)      
#>  2 ASPS      PANGAEA tech-keyword 'ASPS' (59 data sets)    
#>  3 AWIXRFraw PANGAEA tech-keyword 'AWIXRFraw' (1 data sets)
#>  4 BAH1960   PANGAEA tech-keyword 'BAH1960' (2 data sets)  
#>  5 BAH1961   PANGAEA tech-keyword 'BAH1961' (2 data sets)  
#>  6 BAH1962   PANGAEA tech-keyword 'BAH1962' (7 data sets)  
#>  7 BAH1963   PANGAEA tech-keyword 'BAH1963' (7 data sets)  
#>  8 BAH1964   PANGAEA tech-keyword 'BAH1964' (7 data sets)  
#>  9 BAH1965   PANGAEA tech-keyword 'BAH1965' (7 data sets)  
#> 10 BAH1966   PANGAEA tech-keyword 'BAH1966' (6 data sets)  
#> # ... with 252 more rows
```

### List records


```r
pg_list_records(from = Sys.Date() - 1, until = Sys.Date())
```

```
#> # A tibble: 44 x 37
#>    iden… date… setS… setS… setS… setS… title crea… crea… crea… crea… crea…
#>    <chr> <chr> <chr> <chr> <chr> <chr> <chr> <chr> <chr> <chr> <chr> <chr>
#>  1 oai:… 2017… cita… cita… deNB… supp… Geoc… Pirr… Händ… Mert… Enge… Pudl…
#>  2 oai:… 2018… cita… cita… supp… <NA>  Mult… Bart… Tits… Fahl… Stei… Seid…
#>  3 oai:… 2018… supp… <NA>  <NA>  <NA>  Hous… Teys… Rouf… Sale… Stru… Matt…
#>  4 oai:… 2017… deNB… supp… <NA>  <NA>  Biom… Rama… Marb… Prad… Pero… Lard…
#>  5 oai:… 2017… supp… <NA>  <NA>  <NA>  Cont… Welc… Mund… <NA>  <NA>  <NA> 
#>  6 oai:… 2018… <NA>  <NA>  <NA>  <NA>  Pore… Paul… Kosc… <NA>  <NA>  <NA> 
#>  7 oai:… 2018… <NA>  <NA>  <NA>  <NA>  Mete… Olef… <NA>  <NA>  <NA>  <NA> 
#>  8 oai:… 2018… <NA>  <NA>  <NA>  <NA>  Mete… Olef… <NA>  <NA>  <NA>  <NA> 
#>  9 oai:… 2018… <NA>  <NA>  <NA>  <NA>  Basi… Olef… <NA>  <NA>  <NA>  <NA> 
#> 10 oai:… 2018… <NA>  <NA>  <NA>  <NA>  Mete… Olef… <NA>  <NA>  <NA>  <NA> 
#> # ... with 34 more rows, and 25 more variables: creator.5 <chr>, creator.6
#> #   <chr>, source <chr>, publisher <chr>, date <chr>, type <chr>, format
#> #   <chr>, identifier.2 <chr>, identifier.1 <chr>, description <chr>,
#> #   language <chr>, rights <chr>, rights.1 <chr>, coverage <chr>, subject
#> #   <chr>, creator.7 <chr>, creator.8 <chr>, relation <chr>, creator.9
#> #   <chr>, creator.10 <chr>, creator.11 <chr>, relation.1 <chr>,
#> #   relation.2 <chr>, relation.3 <chr>, relation.4 <chr>
```
…
