Download data from Pangaea. — pg_cache_clear • pangaear
…
    References

    https://www.pangaea.de

    Examples

# a single file
res <- pg_data(doi='10.1594/PANGAEA.807580')
#> Downloading 1 datasets from 10.1594/PANGAEA.807580
#> Processing 1 files
res
#> [[1]]
#> <Pangaea data> 10.1594/PANGAEA.807580
#> # A tibble: 32,179 × 13
#>                Event      `Date/Time` Latitude Longitude `Elevation [m]`
#>                <chr>            <chr>    <dbl>     <dbl>           <int>
#> 1  M36/6-CTD-365_003 1996-10-14T12:24  48.9667  -16.4633           -4802
#> 2  M36/6-CTD-365_003 1996-10-14T12:24  48.9667  -16.4633           -4802
#> 3  M36/6-CTD-365_003 1996-10-14T12:24  48.9667  -16.4633           -4802
#> 4  M36/6-CTD-365_003 1996-10-14T12:24  48.9667  -16.4633           -4802
#> 5  M36/6-CTD-365_003 1996-10-14T12:24  48.9667  -16.4633           -4802
#> 6  M36/6-CTD-365_003 1996-10-14T12:24  48.9667  -16.4633           -4802
#> 7  M36/6-CTD-365_003 1996-10-14T12:24  48.9667  -16.4633           -4802
#> 8  M36/6-CTD-365_003 1996-10-14T12:24  48.9667  -16.4633           -4802
#> 9  M36/6-CTD-365_003 1996-10-14T12:24  48.9667  -16.4633           -4802
#> 10 M36/6-CTD-365_003 1996-10-14T12:24  48.9667  -16.4633           -4802
#> # ... with 32,169 more rows, and 8 more variables: `Depth water [m]` <dbl>,
#> #   `Press [dbar]` <int>, `Temp [°C]` <dbl>, Sal <dbl>, `Tpot [°C]` <dbl>,
#> #   `Sigma-theta [kg/m**3]` <dbl>, `Sigma in situ [kg/m**3]` <dbl>, `Cond
#> #   [mS/cm]` <dbl>
…
#> 	Latitude of event (Latitude)
#> 	Longitude of event (Longitude)
#> 	Elevation of event [m] (Elevation)
#> 	DEPTH, water [m] (Depth water) * GEOCODE
#> 	Pressure, water [dbar] (Press) * PI: Waniek, Joanna J (joanna.waniek@io-warnemuende.de, http://www.io-warnemuende.de/homepages/waniek/) * METHOD: CTD, Neil Brown, Mark III B
#> 	Temperature, water [°C] (Temp) * PI: Waniek, Joanna J (joanna.waniek@io-warnemuende.de, http://www.io-warnemuende.de/homepages/waniek/) * METHOD: CTD, Neil Brown, Mark III B
#> 	Salinity (Sal) * PI: Waniek, Joanna J (joanna.waniek@io-warnemuende.de, http://www.io-warnemuende.de/homepages/waniek/) * METHOD: Calculated from conductivity
#> 	Temperature, water, potential [°C] (Tpot) * PI: Waniek, Joanna J (joanna.waniek@io-warnemuende.de, http://www.io-warnemuende.de/homepages/waniek/) * METHOD: Calculated
#> 	Density, sigma-theta (0) [kg/m**3] (Sigma-theta) * PI: Waniek, Joanna J (joanna.waniek@io-warnemuende.de, http://www.io-warnemuende.de/homepages/waniek/) * METHOD: Calculated
#> 	Density, sigma, in situ [kg/m**3] (Sigma in situ) * PI: Waniek, Joanna J (joanna.waniek@io-warnemuende.de, http://www.io-warnemuende.de/homepages/waniek/) * METHOD: Calculated
#> 	Conductivity [mS/cm] (Cond) * PI: Waniek, Joanna J (joanna.waniek@io-warnemuende.de, http://www.io-warnemuende.de/homepages/waniek/) * METHOD: CTD, Neil Brown, Mark III B
#> License:	Creative Commons Attribution 3.0 Unported (CC-BY)
#> Size:	225253 data points
res[[1]]$data
#> # A tibble: 32,179 × 13
#>                Event      `Date/Time` Latitude Longitude `Elevation [m]`
#>                <chr>            <chr>    <dbl>     <dbl>           <int>
#> 1  M36/6-CTD-365_003 1996-10-14T12:24  48.9667  -16.4633           -4802
#> 2  M36/6-CTD-365_003 1996-10-14T12:24  48.9667  -16.4633           -4802
#> 3  M36/6-CTD-365_003 1996-10-14T12:24  48.9667  -16.4633           -4802
#> 4  M36/6-CTD-365_003 1996-10-14T12:24  48.9667  -16.4633           -4802
#> 5  M36/6-CTD-365_003 1996-10-14T12:24  48.9667  -16.4633           -4802
#> 6  M36/6-CTD-365_003 1996-10-14T12:24  48.9667  -16.4633           -4802
#> 7  M36/6-CTD-365_003 1996-10-14T12:24  48.9667  -16.4633           -4802
#> 8  M36/6-CTD-365_003 1996-10-14T12:24  48.9667  -16.4633           -4802
#> 9  M36/6-CTD-365_003 1996-10-14T12:24  48.9667  -16.4633           -4802
#> 10 M36/6-CTD-365_003 1996-10-14T12:24  48.9667  -16.4633           -4802
#> # ... with 32,169 more rows, and 8 more variables: `Depth water [m]` <dbl>,
#> #   `Press [dbar]` <int>, `Temp [°C]` <dbl>, Sal <dbl>, `Tpot [°C]` <dbl>,
#> #   `Sigma-theta [kg/m**3]` <dbl>, `Sigma in situ [kg/m**3]` <dbl>, `Cond
#> #   [mS/cm]` <dbl>

# another single file
pg_data(doi='10.1594/PANGAEA.807584')
#> Downloading 1 datasets from 10.1594/PANGAEA.807584
#> Processing 1 files
#> [[1]]
#> <Pangaea data> 10.1594/PANGAEA.807584
#> # A tibble: 698 × 53
#>            Event      `Date/Time` Latitude Longitude `Elevation [m]`
#>            <chr>            <chr>    <dbl>     <dbl>           <int>
#> 1  M36/5_MSN1121 1996-09-10T07:46  47.1844  -19.5672           -4567
#> 2  M36/5_MSN1121 1996-09-10T07:46  47.1844  -19.5672           -4567
#> 3  M36/5_MSN1121 1996-09-10T07:46  47.1844  -19.5672           -4567
#> 4  M36/5_MSN1121 1996-09-10T07:46  47.1844  -19.5672           -4567
#> 5  M36/5_MSN1121 1996-09-10T07:46  47.1844  -19.5672           -4567
#> 6  M36/5_MSN1121 1996-09-10T07:46  47.1844  -19.5672           -4567
#> 7  M36/5_MSN1121 1996-09-10T07:46  47.1844  -19.5672           -4567
#> 8  M36/5_MSN1121 1996-09-10T07:46  47.1844  -19.5672           -4567
#> 9  M36/5_MSN1121 1996-09-10T07:46  47.1844  -19.5672           -4567
#> 10 M36/5_MSN1121 1996-09-10T07:46  47.1844  -19.5672           -4567
#> # ... with 688 more rows, and 48 more variables: `Depth water [m]` <int>,
#> #   `Depth top [m]` <int>, `Depth bot [m]` <int>, Size <chr>, `D. anfracta
#> #   [#]` <int>, `G. bulloides [#]` <int>, `G. calida [#]` <int>, `T. clarkei
#> #   [#]` <int>, `T. compressa [#]` <int>, `G. conglobatus [#]` <int>, `G.
#> #   crassaformis [#]` <int>, `S. dehiscens [#]` <int>, `B. digitata [#]` <int>,
#> #   `G. digitata [#]` <int>, `H. digitata [#]` <int>, `N. dutertrei [#]` <int>,
#> #   `G. falconensis [#]` <int>, `S. globigerum [#]` <int>, `G. glutinata
#> #   [#]` <int>, `G. hirsuta [#]` <int>, `T. humilis [#]` <int>, `N. incompta
#> #   [#]` <int>, `G. inflata [#]` <int>, `T. iota [#]` <int>, `G. menardii
…
# Many files
(res <- pg_data(doi='10.1594/PANGAEA.761032'))
#> Downloading 2 datasets from 10.1594/PANGAEA.761032
#> Processing 2 files
#> [[1]]
#> <Pangaea data> 10.1594/PANGAEA.761002
#> # A tibble: 250,201 × 9
#>          Event      `Date/Time` Latitude Longitude `Elevation [m]`
#>          <chr>            <chr>    <dbl>     <dbl>           <int>
#> 1  NBP97-05/01 1997-08-04T12:09 -57.5007  -44.9915           -3090
#> 2  NBP97-05/01 1997-08-04T12:09 -57.5007  -44.9915           -3090
#> 3  NBP97-05/01 1997-08-04T12:09 -57.5007  -44.9915           -3090
#> 4  NBP97-05/01 1997-08-04T12:09 -57.5007  -44.9915           -3090
#> 5  NBP97-05/01 1997-08-04T12:09 -57.5007  -44.9915           -3090
#> 6  NBP97-05/01 1997-08-04T12:09 -57.5007  -44.9915           -3090
#> 7  NBP97-05/01 1997-08-04T12:09 -57.5007  -44.9915           -3090
#> 8  NBP97-05/01 1997-08-04T12:09 -57.5007  -44.9915           -3090
#> 9  NBP97-05/01 1997-08-04T12:09 -57.5007  -44.9915           -3090
#> 10 NBP97-05/01 1997-08-04T12:09 -57.5007  -44.9915           -3090
#> # ... with 250,191 more rows, and 4 more variables: `Depth water [m]` <int>,
#> #   `Temp [°C]` <dbl>, Sal <dbl>, `Tpot [°C]` <dbl>
#> 
#> [[2]]
#> <Pangaea data> 10.1594/PANGAEA.319391
#> # A tibble: 6,060 × 12
#>         `Date/Time` Latitude Longitude `Depth water [m]` `UC [cm/s]`
#>               <chr>    <dbl>     <dbl>             <int>       <dbl>
#> 1  1997-08-03T19:00 -56.3617  -50.6079                40        53.8
#> 2  1997-08-03T19:00 -56.3617  -50.6079                50        51.3
#> 3  1997-08-03T19:00 -56.3617  -50.6079                60        50.9
#> 4  1997-08-03T19:00 -56.3617  -50.6079                70        51.0
#> 5  1997-08-03T19:00 -56.3617  -50.6079                80        49.8
#> 6  1997-08-03T19:00 -56.3617  -50.6079                90        49.5
#> 7  1997-08-03T19:00 -56.3617  -50.6079               100        47.7
#> 8  1997-08-03T19:00 -56.3617  -50.6079               110        48.3
#> 9  1997-08-03T19:00 -56.3617  -50.6079               120        48.9
#> 10 1997-08-03T19:00 -56.3617  -50.6079               130        48.7
#> # ... with 6,050 more rows, and 7 more variables: `VC [cm/s]` <dbl>, `T tech
#> #   [°C]` <dbl>, `T tech std dev [±]` <dbl>, `Ship velo SU [m/s]` <dbl>, `Ship
#> #   velo SU std dev [±]` <dbl>, `Ship velo SV [m/s]` <dbl>, `Ship velo SV std
#> #   dev [±]` <dbl>
#> 
res[[1]]
#> <Pangaea data> 10.1594/PANGAEA.761002
#> # A tibble: 250,201 × 9
#>          Event      `Date/Time` Latitude Longitude `Elevation [m]`
#>          <chr>            <chr>    <dbl>     <dbl>           <int>
#> 1  NBP97-05/01 1997-08-04T12:09 -57.5007  -44.9915           -3090
#> 2  NBP97-05/01 1997-08-04T12:09 -57.5007  -44.9915           -3090
#> 3  NBP97-05/01 1997-08-04T12:09 -57.5007  -44.9915           -3090
#> 4  NBP97-05/01 1997-08-04T12:09 -57.5007  -44.9915           -3090
#> 5  NBP97-05/01 1997-08-04T12:09 -57.5007  -44.9915           -3090
#> 6  NBP97-05/01 1997-08-04T12:09 -57.5007  -44.9915           -3090
#> 7  NBP97-05/01 1997-08-04T12:09 -57.5007  -44.9915           -3090
#> 8  NBP97-05/01 1997-08-04T12:09 -57.5007  -44.9915           -3090
#> 9  NBP97-05/01 1997-08-04T12:09 -57.5007  -44.9915           -3090
#> 10 NBP97-05/01 1997-08-04T12:09 -57.5007  -44.9915           -3090
#> # ... with 250,191 more rows, and 4 more variables: `Depth water [m]` <int>,
#> #   `Temp [°C]` <dbl>, Sal <dbl>, `Tpot [°C]` <dbl>
res[[2]]
#> <Pangaea data> 10.1594/PANGAEA.319391
#> # A tibble: 6,060 × 12
#>         `Date/Time` Latitude Longitude `Depth water [m]` `UC [cm/s]`
#>               <chr>    <dbl>     <dbl>             <int>       <dbl>
#> 1  1997-08-03T19:00 -56.3617  -50.6079                40        53.8
#> 2  1997-08-03T19:00 -56.3617  -50.6079                50        51.3
#> 3  1997-08-03T19:00 -56.3617  -50.6079                60        50.9
#> 4  1997-08-03T19:00 -56.3617  -50.6079                70        51.0
#> 5  1997-08-03T19:00 -56.3617  -50.6079                80        49.8
#> 6  1997-08-03T19:00 -56.3617  -50.6079                90        49.5
#> 7  1997-08-03T19:00 -56.3617  -50.6079               100        47.7
#> 8  1997-08-03T19:00 -56.3617  -50.6079               110        48.3
#> 9  1997-08-03T19:00 -56.3617  -50.6079               120        48.9
#> 10 1997-08-03T19:00 -56.3617  -50.6079               130        48.7
#> # ... with 6,050 more rows, and 7 more variables: `VC [cm/s]` <dbl>, `T tech
#> #   [°C]` <dbl>, `T tech std dev [±]` <dbl>, `Ship velo SU [m/s]` <dbl>, `Ship
#> #   velo SU std dev [±]` <dbl>, `Ship velo SV [m/s]` <dbl>, `Ship velo SV std
#> #   dev [±]` <dbl>
…
## clear a single dataset by DOI
pg_data(doi='10.1594/PANGAEA.812093')
#> Downloading 1 datasets from 10.1594/PANGAEA.812093
#> Processing 1 files
#> [[1]]
#> <Pangaea data> 10.1594/PANGAEA.812093
#> # A tibble: 36 × 18
#>       Event `Sample label`                              `Sample comment`
#>       <chr>          <chr>                                         <chr>
#> 1  169-856H 169-856H-55R-1 complete altered, thickness of basalt =200 µm
#> 2  169-856H 169-856H-55R-1 complete altered, thickness of basalt =200 µm
#> 3  169-856H 169-856H-55R-1 complete altered, thickness of basalt =200 µm
#> 4  169-856H 169-856H-55R-1 complete altered, thickness of basalt =200 µm
#> 5  169-856H 169-856H-55R-1 complete altered, thickness of basalt =200 µm
#> 6  169-856H 169-856H-55R-1 complete altered, thickness of basalt =200 µm
#> 7  169-856H 169-856H-55R-1 complete altered, thickness of basalt =200 µm
#> 8  169-856H 169-856H-55R-1 complete altered, thickness of basalt =200 µm
#> 9  169-856H 169-856H-55R-1 complete altered, thickness of basalt =200 µm
#> 10 169-856H 169-856H-55R-1 complete altered, thickness of basalt =200 µm
#> # ... with 26 more rows, and 15 more variables: `Depth [m]` <dbl>, `Distance
#> #   [µm]` <int>, `T tech [°C]` <dbl>, Run <chr>, `- (initial concentration of
#> #   diff...)` <dbl>, `- (initial concentration of diff...)` <dbl>, `Poros frac
#> #   (#1, from fit)` <dbl>, `Poros frac (#2, from fit)` <dbl>, `Diff coeff
#> #   [10**-6 cm**2/s]` <dbl>, `Diff coeff std dev [±] (effective from
#> #   fit)` <dbl>, `Diff coeff std dev [±] (effective total)` <dbl>, X <dbl>, `X
#> #   (average)` <int>, F <int>, `- (m)` <dbl>
…
# search for datasets, then pass in DOIs
res <- pg_search(query='water', count=20)
pg_data(res$doi[1])
#> Downloading 7 datasets from 10.1594/PANGAEA.843740
#> Processing 7 files
#> [[1]]
#> <Pangaea data> 10.1594/PANGAEA.843733
#> # A tibble: 52,560 × 5
#>         `Date/Time` `Press [dbar]`
#>               <chr>          <dbl>
#> 1  2005-01-01T00:00          12.70
#> 2  2005-01-01T00:10          12.79
#> 3  2005-01-01T00:20          12.87
#> 4  2005-01-01T00:30          12.92
#> 5  2005-01-01T00:40          12.99
#> 6  2005-01-01T00:50          13.05
#> 7  2005-01-01T01:00          13.11
#> 8  2005-01-01T01:10          13.16
#> 9  2005-01-01T01:20          13.19
#> 10 2005-01-01T01:30          13.22
#> # ... with 52,550 more rows, and 3 more variables: `Water level [m] (with trend
#> #   and outlier removal)` <dbl>, `Water level [m] (after all processing
#> #   steps)` <dbl>, `Flag [#]` <int>
#> 
#> [[2]]
#> <Pangaea data> 10.1594/PANGAEA.843734
#> # A tibble: 52,560 × 5
#>         `Date/Time` `Press [dbar]`
#>               <chr>          <dbl>
#> 1  2006-01-01T00:00          12.09
#> 2  2006-01-01T00:10          12.00
#> 3  2006-01-01T00:20          11.90
#> 4  2006-01-01T00:30          11.79
#> 5  2006-01-01T00:40          11.69
#> 6  2006-01-01T00:50          11.59
#> 7  2006-01-01T01:00          11.48
#> 8  2006-01-01T01:10          11.37
#> 9  2006-01-01T01:20          11.26
#> 10 2006-01-01T01:30          11.15
#> # ... with 52,550 more rows, and 3 more variables: `Water level [m] (with trend
#> #   and outlier removal)` <dbl>, `Water level [m] (after all processing
#> #   steps)` <dbl>, `Flag [#]` <int>
#> 
#> [[3]]
#> <Pangaea data> 10.1594/PANGAEA.843735
#> # A tibble: 52,560 × 5
#>         `Date/Time` `Press [dbar]`
#>               <chr>          <dbl>
#> 1  2007-01-01T00:00          11.41
#> 2  2007-01-01T00:10          11.39
#> 3  2007-01-01T00:20          11.34
#> 4  2007-01-01T00:30          11.28
#> 5  2007-01-01T00:40          11.31
#> 6  2007-01-01T00:50          11.32
#> 7  2007-01-01T01:00          11.29
#> 8  2007-01-01T01:10          11.23
#> 9  2007-01-01T01:20          11.29
#> 10 2007-01-01T01:30          11.31
#> # ... with 52,550 more rows, and 3 more variables: `Water level [m] (with trend
#> #   and outlier removal)` <dbl>, `Water level [m] (after all processing
#> #   steps)` <dbl>, `Flag [#]` <int>
#> 
#> [[4]]
#> <Pangaea data> 10.1594/PANGAEA.843736
#> # A tibble: 52,704 × 5
#>         `Date/Time` `Press [dbar]`
#>               <chr>          <dbl>
#> 1  2008-01-01T00:00          11.40
#> 2  2008-01-01T00:10          11.55
#> 3  2008-01-01T00:20          11.67
#> 4  2008-01-01T00:30          11.80
#> 5  2008-01-01T00:40          11.92
#> 6  2008-01-01T00:50          12.01
#> 7  2008-01-01T01:00          12.10
#> 8  2008-01-01T01:10          12.18
#> 9  2008-01-01T01:20          12.27
#> 10 2008-01-01T01:30          12.34
#> # ... with 52,694 more rows, and 3 more variables: `Water level [m] (with trend
#> #   and outlier removal)` <dbl>, `Water level [m] (after all processing
#> #   steps)` <dbl>, `Flag [#]` <int>
#> 
#> [[5]]
#> <Pangaea data> 10.1594/PANGAEA.843737
#> # A tibble: 52,560 × 5
#>         `Date/Time` `Press [dbar]`
#>               <chr>          <dbl>
#> 1  2009-01-01T00:00          11.63
#> 2  2009-01-01T00:10          11.70
#> 3  2009-01-01T00:20          11.78
#> 4  2009-01-01T00:30          11.84
#> 5  2009-01-01T00:40          11.90
#> 6  2009-01-01T00:50          11.94
#> 7  2009-01-01T01:00          11.97
#> 8  2009-01-01T01:10          11.98
#> 9  2009-01-01T01:20          11.97
#> 10 2009-01-01T01:30          11.95
#> # ... with 52,550 more rows, and 3 more variables: `Water level [m] (with trend
#> #   and outlier removal)` <dbl>, `Water level [m] (after all processing
#> #   steps)` <dbl>, `Flag [#]` <int>
#> 
#> [[6]]
#> <Pangaea data> 10.1594/PANGAEA.843738
#> # A tibble: 52,560 × 5
#>         `Date/Time` `Press [dbar]`
#>               <chr>          <dbl>
#> 1  2010-01-01T00:00          12.12
#> 2  2010-01-01T00:10          12.02
#> 3  2010-01-01T00:20          11.90
#> 4  2010-01-01T00:30          11.79
#> 5  2010-01-01T00:40          11.69
#> 6  2010-01-01T00:50          11.58
#> 7  2010-01-01T01:00          11.48
#> 8  2010-01-01T01:10          11.37
#> 9  2010-01-01T01:20          11.26
#> 10 2010-01-01T01:30          11.16
#> # ... with 52,550 more rows, and 3 more variables: `Water level [m] (with trend
#> #   and outlier removal)` <dbl>, `Water level [m] (after all processing
#> #   steps)` <dbl>, `Flag [#]` <int>
#> 
#> [[7]]
#> <Pangaea data> 10.1594/PANGAEA.843739
#> # A tibble: 52,560 × 5
#>         `Date/Time` `Press [dbar]`
#>               <chr>          <dbl>
#> 1  2011-01-01T00:00          11.11
#> 2  2011-01-01T00:10          11.07
#> 3  2011-01-01T00:20          11.03
#> 4  2011-01-01T00:30          11.01
#> 5  2011-01-01T00:40          10.97
#> 6  2011-01-01T00:50          10.93
#> 7  2011-01-01T01:00          10.94
#> 8  2011-01-01T01:10          10.93
#> 9  2011-01-01T01:20          10.93
#> 10 2011-01-01T01:30          10.94
#> # ... with 52,550 more rows, and 3 more variables: `Water level [m] (with trend
#> #   and outlier removal)` <dbl>, `Water level [m] (after all processing
#> #   steps)` <dbl>, `Flag [#]` <int>
…
#> 10        Usnea antarctica                   fine form                       83
#> 11     Alectoria minuscula                                                  351
#> 12   Umbilicaria decussata                                                  130
#> 13      Umbilicaria aprina                                                  204
#> # ... with 7 more variables: `Water std dev [±] (initial)` <int>, `Water loss
#> #   dry wgt [%] (Time 1 hr)` <int>, `Water loss dry wgt [%] (Time 6 hr)` <int>,
#> #   `Water loss dry wgt [%] (Time 12 hr)` <int>, `Water loss dry wgt [%] (Time
#> #   24 hr)` <int>, `Water dm [%]` <int>, `Water std dev [±]` <dbl>
#> 
pg_data(res$doi[3])
#> Downloading 10 datasets from 10.1594/PANGAEA.811079
#> Processing 10 files
#> [[1]]
#> <Pangaea data> 10.1594/PANGAEA.811075
#> # A tibble: 2,165 × 2
#>         `Date/Time` `Q [l/s]`
#>               <chr>     <dbl>
#> 1  2011-07-04T02:15    1.0264
#> 2  2011-07-04T02:45    0.9767
#> 3  2011-07-04T03:15    1.0193
#> 4  2011-07-04T03:45    0.9557
#> 5  2011-07-04T04:15    0.9879
#> 6  2011-07-04T04:45    1.0351
#> 7  2011-07-04T05:15    1.0956
#> 8  2011-07-04T05:45    1.1674
#> 9  2011-07-04T06:15    1.1720
#> 10 2011-07-04T06:45    1.1856
#> # ... with 2,155 more rows
#> 
#> [[2]]
#> <Pangaea data> 10.1594/PANGAEA.811076
#> # A tibble: 4,215 × 3
#>         `Date/Time` `ET [mm/h]` `Precip [mm/h]`
#>               <chr>       <dbl>           <dbl>
#> 1  2011-05-24T04:45      0.0116          0.0000
#> 2  2011-05-24T05:15      0.0149          0.0000
#> 3  2011-05-24T05:45      0.0182          0.4464
#> 4  2011-05-24T06:15      0.0230          0.0000
#> 5  2011-05-24T06:45      0.0278          0.0000
#> 6  2011-05-24T07:15      0.0174          0.0000
#> 7  2011-05-24T07:45      0.0140          0.0000
#> 8  2011-05-24T08:15      0.0096          0.0000
#> 9  2011-05-24T08:45      0.0135          0.0000
#> 10 2011-05-24T09:15      0.0158          0.0000
#> # ... with 4,205 more rows
…
