List records from Pangaea — pg_list_records • pangaear
…
    See also

    wraps oai::list_records()

    Other oai methods: pg_get_record,
  pg_identify,
  pg_list_identifiers,
  pg_list_metadata_formats,
  pg_list_sets

    Examples

pg_list_records(set='citable', from=Sys.Date()-1, until=Sys.Date())
#> # A tibble: 142 × 44
#>                                   identifier            datestamp setSpec
#>                                        <chr>                <chr>   <chr>
#> 1   oai:pangaea.de:doi:10.1594/PANGAEA.55417 2017-03-08T13:19:32Z citable
#> 2   oai:pangaea.de:doi:10.1594/PANGAEA.57910 2017-03-08T13:17:50Z  ORFOIS
#> 3   oai:pangaea.de:doi:10.1594/PANGAEA.77250 2017-03-08T13:19:59Z citable
#> 4  oai:pangaea.de:doi:10.1594/PANGAEA.208129 2017-03-08T13:19:16Z citable
#> 5  oai:pangaea.de:doi:10.1594/PANGAEA.351146 2017-03-08T13:18:19Z citable
#> 6  oai:pangaea.de:doi:10.1594/PANGAEA.693923 2017-03-08T13:17:24Z citable
#> 7  oai:pangaea.de:doi:10.1594/PANGAEA.726410 2017-03-08T13:17:54Z citable
#> 8  oai:pangaea.de:doi:10.1594/PANGAEA.757616 2017-03-08T13:18:05Z citable
#> 9  oai:pangaea.de:doi:10.1594/PANGAEA.758696 2017-03-08T13:19:02Z citable
#> 10 oai:pangaea.de:doi:10.1594/PANGAEA.760166 2017-03-09T14:54:46Z    BCCR
#> # ... with 132 more rows, and 41 more variables: setSpec.1 <chr>,
#> #   setSpec.2 <chr>, title <chr>, creator <chr>, creator.1 <chr>, source <chr>,
#> #   publisher <chr>, date <chr>, type <chr>, format <chr>, identifier.2 <chr>,
#> #   identifier.1 <chr>, description <chr>, language <chr>, rights <chr>,
#> #   rights.1 <chr>, coverage <chr>, subject <chr>, setSpec.3 <chr>,
#> #   creator.2 <chr>, creator.3 <chr>, relation <chr>, relation.1 <chr>,
#> #   relation.2 <chr>, relation.3 <chr>, relation.4 <chr>, creator.4 <chr>,
#> #   creator.5 <chr>, creator.6 <chr>, creator.7 <chr>, setSpec.4 <chr>,
#> #   setSpec.5 <chr>, setSpec.6 <chr>, source.1 <chr>, creator.8 <chr>,
#> #   creator.9 <chr>, creator.10 <chr>, creator.11 <chr>, creator.12 <chr>,
#> #   creator.13 <chr>, relation.5 <chr>

# When no results found > "'noRecordsMatch'"
# pg_list_records(set='geomound', from='2015-01-01', until='2015-01-01')

pg_list_records(prefix="iso19139", set='citable', from=Sys.Date()-1,
  until=Sys.Date())
#> # A tibble: 142 × 136
#>                                   identifier            datestamp setSpec
#>                                        <chr>                <chr>   <chr>
#> 1   oai:pangaea.de:doi:10.1594/PANGAEA.55417 2017-03-08T13:19:32Z citable
#> 2   oai:pangaea.de:doi:10.1594/PANGAEA.57910 2017-03-08T13:17:50Z  ORFOIS
#> 3   oai:pangaea.de:doi:10.1594/PANGAEA.77250 2017-03-08T13:19:59Z citable
#> 4  oai:pangaea.de:doi:10.1594/PANGAEA.208129 2017-03-08T13:19:16Z citable
#> 5  oai:pangaea.de:doi:10.1594/PANGAEA.351146 2017-03-08T13:18:19Z citable
#> 6  oai:pangaea.de:doi:10.1594/PANGAEA.693923 2017-03-08T13:17:24Z citable
#> 7  oai:pangaea.de:doi:10.1594/PANGAEA.726410 2017-03-08T13:17:54Z citable
#> 8  oai:pangaea.de:doi:10.1594/PANGAEA.757616 2017-03-08T13:18:05Z citable
#> 9  oai:pangaea.de:doi:10.1594/PANGAEA.758696 2017-03-08T13:19:02Z citable
#> 10 oai:pangaea.de:doi:10.1594/PANGAEA.760166 2017-03-09T14:54:46Z    BCCR
#> # ... with 132 more rows, and 133 more variables: setSpec.1 <chr>,
#> #   setSpec.2 <chr>, fileIdentifier <chr>, contact <chr>, dateStamp <chr>,
#> #   dataSetURI <chr>, identificationInfo <chr>, contentInfo <chr>,
#> #   contentInfo.1 <chr>, contentInfo.2 <chr>, contentInfo.3 <chr>,
#> #   contentInfo.4 <chr>, contentInfo.5 <chr>, contentInfo.6 <chr>,
#> #   contentInfo.7 <chr>, contentInfo.8 <chr>, contentInfo.9 <chr>,
#> #   contentInfo.10 <chr>, contentInfo.11 <chr>, contentInfo.12 <chr>,
#> #   contentInfo.13 <chr>, contentInfo.14 <chr>, contentInfo.15 <chr>,
#> #   contentInfo.16 <chr>, contentInfo.17 <chr>, contentInfo.18 <chr>,
…
