List the set structure of the Pangaea repository — pg_list_sets • pangaear
…
    See also

    wraps oai::list_sets()

    Other oai methods: pg_get_record,
  pg_identify,
  pg_list_identifiers,
  pg_list_metadata_formats,
  pg_list_records

    Examples

pg_list_sets()
#> # A tibble: 257 × 2
#>      setSpec                                        setName
#>        <chr>                                          <chr>
#> 1        ACD       PANGAEA tech-keyword 'ACD' (2 data sets)
#> 2       ASPS     PANGAEA tech-keyword 'ASPS' (59 data sets)
#> 3  AWIXRFraw PANGAEA tech-keyword 'AWIXRFraw' (1 data sets)
#> 4    BAH1960   PANGAEA tech-keyword 'BAH1960' (2 data sets)
#> 5    BAH1961   PANGAEA tech-keyword 'BAH1961' (2 data sets)
#> 6    BAH1962   PANGAEA tech-keyword 'BAH1962' (7 data sets)
#> 7    BAH1963   PANGAEA tech-keyword 'BAH1963' (7 data sets)
#> 8    BAH1964   PANGAEA tech-keyword 'BAH1964' (7 data sets)
#> 9    BAH1965   PANGAEA tech-keyword 'BAH1965' (7 data sets)
#> 10   BAH1966   PANGAEA tech-keyword 'BAH1966' (6 data sets)
#> # ... with 247 more rows
…
