Search the Pangaea database — pg_search • pangaear
…
# paging with count and offset
# max is 500 records per request - if you need > 500, use offset and count
res1 <- pg_search(query = "florisphaera", count = 500, offset = 0)
res2 <- pg_search(query = "florisphaera", count = 500, offset = 500)
res3 <- pg_search(query = "florisphaera", count = 500, offset = 1000)
do.call("rbind.data.frame", list(res1, res2, res3))
#> # A tibble: 1,235 × 6
#>       score                    doi  size size_measure
#> *     <dbl>                  <chr> <dbl>        <chr>
#> 1  79.11172 10.1594/PANGAEA.805696     2     datasets
#> 2  54.37842 10.1594/PANGAEA.757616   150  data points
#> 3  53.64798 10.1594/PANGAEA.122790   852  data points
#> 4  47.01232 10.1594/PANGAEA.836238  1946  data points
#> 5  47.01232 10.1594/PANGAEA.867495   416  data points
#> 6  44.68165 10.1594/PANGAEA.816226  3744  data points
#> 7  44.67970 10.1594/PANGAEA.864106     4     datasets
#> 8  43.96087 10.1594/PANGAEA.846603   162  data points
#> 9  43.91185 10.1594/PANGAEA.844527     7     datasets
#> 10 41.74735 10.1594/PANGAEA.746273  1728  data points
#> # ... with 1,225 more rows, and 2 more variables: citation <chr>,
#> #   supplement_to <chr>
…
